pbrt version 3 (built Sep 12 2019 at 16:28:07) [Detected 8 cores]
Copyright (c)1998-2018 Matt Pharr, Greg Humphreys, and Wenzel Jakob.
The source code to pbrt (but *not* the book contents) is covered by the BSD License.
See the file LICENSE.txt for the conditions of the license.
interior nodes: 1974
leaf nodes: 1975
done pre-processing tree. Max depth: 16
Rendering: [                                           ] Rendering: [                                           ]  (0.2s|61.9s)  Rendering: [                                           ]  (0.5s|59.9s)  Rendering: [+                                          ]  (0.8s|61.4s)  Rendering: [+                                          ]  (1.0s|66.1s)  Rendering: [+                                          ]  (1.2s|64.8s)  Rendering: [+                                          ]  (1.5s|63.2s)  Rendering: [+                                          ]  (1.8s|62.5s)  Rendering: [+                                          ]  (2.0s|65.1s)  Rendering: [+                                          ]  (2.3s|64.3s)  Rendering: [++                                         ]  (2.5s|63.5s)  Rendering: [++                                         ]  (3.0s|64.1s)  Rendering: [++                                         ]  (3.5s|63.1s)  Rendering: [+++                                        ]  (4.0s|62.8s)  Rendering: [+++                                        ]  (4.5s|62.2s)  Rendering: [+++                                        ]  (5.0s|61.7s)  Rendering: [++++                                       ]  (5.5s|61.3s)  Rendering: [++++                                       ]  (6.0s|60.6s)  Rendering: [++++                                       ]  (6.5s|60.3s)  Rendering: [+++++                                      ]  (7.0s|59.5s)  Rendering: [+++++                                      ]  (7.5s|59.5s)  Rendering: [+++++                                      ]  (8.0s|60.2s)  Rendering: [+++++                                      ]  (8.5s|59.9s)  Rendering: [++++++                                     ]  (9.0s|60.1s)  Rendering: [++++++                                     ]  (9.5s|62.5s)  Rendering: [++++++                                     ]  (10.0s|61.8s)  Rendering: [++++++                                     ]  (10.5s|61.5s)  Rendering: [++++++                                     ]  (11.0s|62.1s)  Rendering: [+++++++                                    ]  (11.5s|60.8s)  Rendering: [+++++++                                    ]  (12.0s|62.4s)  Rendering: [+++++++                                    ]  (12.5s|63.0s)  Rendering: [+++++++                                    ]  (13.0s|61.9s)  Rendering: [++++++++                                   ]  (13.5s|63.6s)  Rendering: [++++++++                                   ]  (14.0s|65.7s)  Rendering: [++++++++                                   ]  (14.5s|67.5s)  Rendering: [++++++++                                   ]  (15.0s|69.3s)  Rendering: [++++++++                                   ]  (15.5s|69.6s)  Rendering: [++++++++                                   ]  (16.0s|68.9s)  Rendering: [++++++++                                   ]  (16.5s|70.5s)  Rendering: [++++++++                                   ]  (17.0s|72.6s)  Rendering: [++++++++                                   ]  (17.5s|74.3s)  Rendering: [++++++++                                   ]  (18.0s|76.1s)  Rendering: [++++++++                                   ]  (18.5s|78.0s)  Rendering: [++++++++                                   ]  (19.0s|79.8s)  Rendering: [++++++++                                   ]  (19.5s|81.4s)  Rendering: [++++++++                                   ]  (20.0s|82.2s)  Rendering: [+++++++++                                  ]  (20.5s|80.3s)  Rendering: [+++++++++                                  ]  (21.0s|81.7s)  Rendering: [+++++++++                                  ]  (21.5s|83.4s)  Rendering: [+++++++++                                  ]  (22.0s|85.4s)  Rendering: [+++++++++                                  ]  (22.5s|86.9s)  Rendering: [+++++++++                                  ]  (23.0s|88.7s)  Rendering: [+++++++++                                  ]  (23.5s|90.5s)  Rendering: [+++++++++                                  ]  (24.0s|92.4s)  Rendering: [+++++++++                                  ]  (24.5s|94.2s)  Rendering: [+++++++++                                  ]  (25.0s|96.0s)  Rendering: [+++++++++                                  ]  (25.5s|97.8s)  Rendering: [+++++++++                                  ]  (26.0s|99.7s)  Rendering: [+++++++++                                  ]  (26.5s|101.3s)  Rendering: [+++++++++                                  ]  (27.0s|102.5s)  Rendering: [+++++++++                                  ]  (27.5s|103.5s)  Rendering: [+++++++++                                  ]  (28.0s|101.5s)  Rendering: [+++++++++                                  ]  (28.5s|101.7s)  Rendering: [+++++++++                                  ]  (29.0s|102.8s)  Rendering: [+++++++++                                  ]  (29.5s|104.4s)  Rendering: [+++++++++                                  ]  (30.0s|105.9s)  Rendering: [+++++++++                                  ]  (30.5s|107.6s)  Rendering: [++++++++++                                 ]  (31.0s|109.3s)  Rendering: [++++++++++                                 ]  (31.5s|110.9s)  Rendering: [++++++++++                                 ]  (32.0s|112.5s)  Rendering: [++++++++++                                 ]  (32.5s|114.2s)  Rendering: [++++++++++                                 ]  (33.5s|117.4s)  Rendering: [++++++++++                                 ]  (34.5s|120.4s)  Rendering: [++++++++++                                 ]  (35.5s|122.6s)  Rendering: [++++++++++                                 ]  (36.5s|123.2s)  Rendering: [++++++++++                                 ]  (37.5s|122.6s)  Rendering: [++++++++++                                 ]  (38.5s|124.7s)  Rendering: [++++++++++                                 ]  (39.5s|127.6s)  Rendering: [++++++++++                                 ]  (40.5s|130.5s)  Rendering: [++++++++++                                 ]  (41.5s|133.3s)  Rendering: [++++++++++                                 ]  (42.5s|135.5s)  Rendering: [++++++++++                                 ]  (43.5s|137.2s)  Rendering: [+++++++++++                                ]  (44.5s|135.3s)  Rendering: [+++++++++++                                ]  (45.5s|135.9s)  Rendering: [+++++++++++                                ]  (46.5s|137.8s)  Rendering: [+++++++++++                                ]  (47.5s|139.6s)  Rendering: [+++++++++++                                ]  (48.5s|141.1s)  Rendering: [+++++++++++                                ]  (49.5s|137.3s)  Rendering: [+++++++++++                                ]  (50.5s|139.5s)  Rendering: [++++++++++++                               ]  (51.5s|139.9s)  Rendering: [++++++++++++                               ]  (52.5s|140.7s)  Rendering: [++++++++++++                               ]  (53.5s|137.3s)  Rendering: [++++++++++++                               ]  (54.5s|139.4s)  Rendering: [++++++++++++                               ]  (55.5s|138.3s)  Rendering: [+++++++++++++                              ]  (56.5s|134.3s)  Rendering: [+++++++++++++                              ]  (57.5s|135.9s)  Rendering: [+++++++++++++                              ]  (58.5s|134.8s)  Rendering: [+++++++++++++                              ]  (59.5s|131.5s)  Rendering: [++++++++++++++                             ]  (60.5s|130.7s)  Rendering: [++++++++++++++                             ]  (61.5s|129.7s)  Rendering: [++++++++++++++                             ]  (62.5s|127.2s)  Rendering: [++++++++++++++                             ]  (63.5s|126.5s)  Rendering: [+++++++++++++++                            ]  (64.5s|122.9s)  Rendering: [+++++++++++++++                            ]  (65.5s|122.1s)  Rendering: [+++++++++++++++                            ]  (66.5s|119.3s)  Rendering: [++++++++++++++++                           ]  (67.5s|118.1s)  Rendering: [++++++++++++++++                           ]  (68.5s|116.0s)  Rendering: [++++++++++++++++                           ]  (69.5s|115.8s)  Rendering: [++++++++++++++++                           ]  (70.5s|114.9s)  Rendering: [+++++++++++++++++                          ]  (71.5s|113.3s)  Rendering: [+++++++++++++++++                          ]  (72.5s|114.5s)  Rendering: [+++++++++++++++++                          ]  (73.5s|115.5s)  Rendering: [+++++++++++++++++                          ]  (74.5s|114.3s)  Rendering: [+++++++++++++++++                          ]  (75.5s|113.8s)  Rendering: [+++++++++++++++++                          ]  (76.5s|113.9s)  Rendering: [+++++++++++++++++                          ]  (77.5s|115.1s)  Rendering: [+++++++++++++++++                          ]  (78.5s|116.4s)  Rendering: [+++++++++++++++++                          ]  (79.5s|117.8s)  Rendering: [+++++++++++++++++                          ]  (80.5s|119.0s)  Rendering: [+++++++++++++++++                          ]  (81.5s|119.1s)  Rendering: [++++++++++++++++++                         ]  (82.5s|118.2s)  Rendering: [++++++++++++++++++                         ]  (83.5s|117.3s)  Rendering: [++++++++++++++++++                         ]  (84.5s|118.3s)  Rendering: [++++++++++++++++++                         ]  (85.5s|119.4s)  Rendering: [++++++++++++++++++                         ]  (86.5s|120.7s)  Rendering: [++++++++++++++++++                         ]  (87.5s|122.0s)  Rendering: [++++++++++++++++++                         ]  (88.5s|123.2s)  Rendering: [++++++++++++++++++                         ]  (89.5s|124.5s)  Rendering: [++++++++++++++++++                         ]  (90.5s|125.7s)  Rendering: [++++++++++++++++++                         ]  (91.5s|126.9s)  Rendering: [++++++++++++++++++                         ]  (92.5s|128.1s)  Rendering: [++++++++++++++++++                         ]  (93.5s|126.2s)  Rendering: [++++++++++++++++++                         ]  (94.5s|125.7s)  Rendering: [+++++++++++++++++++                        ]  (95.5s|125.9s)  Rendering: [+++++++++++++++++++                        ]  (96.5s|126.9s)  Rendering: [+++++++++++++++++++                        ]  (97.5s|128.1s)  Rendering: [+++++++++++++++++++                        ]  (98.5s|129.3s)  Rendering: [+++++++++++++++++++                        ]  (99.5s|130.5s)  Rendering: [+++++++++++++++++++                        ]  (100.5s|131.6s)  Rendering: [+++++++++++++++++++                        ]  (101.5s|132.7s)  Rendering: [+++++++++++++++++++                        ]  (102.5s|133.9s)  Rendering: [+++++++++++++++++++                        ]  (103.5s|135.1s)  Rendering: [+++++++++++++++++++                        ]  (104.5s|136.3s)  Rendering: [+++++++++++++++++++                        ]  (105.5s|137.4s)  Rendering: [+++++++++++++++++++                        ]  (106.5s|137.1s)  Rendering: [+++++++++++++++++++                        ]  (107.5s|135.9s)  Rendering: [+++++++++++++++++++                        ]  (108.5s|134.7s)  Rendering: [+++++++++++++++++++                        ]  (109.5s|135.7s)  Rendering: [+++++++++++++++++++                        ]  (110.5s|136.8s)  Rendering: [+++++++++++++++++++                        ]  (111.5s|137.9s)  Rendering: [+++++++++++++++++++                        ]  (112.5s|139.0s)  Rendering: [+++++++++++++++++++                        ]  (113.5s|140.0s)  Rendering: [+++++++++++++++++++                        ]  (114.5s|141.1s)  Rendering: [+++++++++++++++++++                        ]  (115.5s|142.2s)  Rendering: [+++++++++++++++++++                        ]  (116.5s|143.3s)  Rendering: [+++++++++++++++++++                        ]  (117.5s|144.4s)  Rendering: [+++++++++++++++++++                        ]  (118.5s|145.4s)  Rendering: [+++++++++++++++++++                        ]  (119.5s|146.5s)  Rendering: [+++++++++++++++++++                        ]  (120.5s|147.6s)  Rendering: [+++++++++++++++++++                        ]  (121.5s|148.7s)  Rendering: [+++++++++++++++++++                        ]  (122.5s|148.6s)  Rendering: [++++++++++++++++++++                       ]  (123.5s|147.0s)  Rendering: [++++++++++++++++++++                       ]  (124.5s|145.6s)  Rendering: [++++++++++++++++++++                       ]  (125.5s|146.3s)  Rendering: [++++++++++++++++++++                       ]  (126.5s|147.3s)  Rendering: [++++++++++++++++++++                       ]  (127.5s|148.3s)  Rendering: [++++++++++++++++++++                       ]  (128.5s|149.4s)  Rendering: [++++++++++++++++++++                       ]  (129.5s|150.4s)  Rendering: [++++++++++++++++++++                       ]  (130.5s|151.4s)  Rendering: [++++++++++++++++++++                       ]  (131.5s|152.4s)  Rendering: [++++++++++++++++++++                       ]  (132.5s|153.4s)  Rendering: [++++++++++++++++++++                       ]  (133.5s|154.4s)  Rendering: [++++++++++++++++++++                       ]  (134.5s|155.5s)  Rendering: [++++++++++++++++++++                       ]  (135.5s|156.5s)  Rendering: [++++++++++++++++++++                       ]  (136.5s|157.5s)  Rendering: [++++++++++++++++++++                       ]  (137.5s|158.5s)  Rendering: [++++++++++++++++++++                       ]  (138.5s|159.5s)  Rendering: [++++++++++++++++++++                       ]  (139.5s|160.5s)  Rendering: [++++++++++++++++++++                       ]  (140.5s|161.6s)  Rendering: [++++++++++++++++++++                       ]  (141.5s|162.3s)  Rendering: [++++++++++++++++++++                       ]  (142.5s|159.6s)  Rendering: [++++++++++++++++++++                       ]  (143.5s|158.3s)  Rendering: [+++++++++++++++++++++                      ]  (144.5s|158.5s)  Rendering: [+++++++++++++++++++++                      ]  (145.5s|159.5s)  Rendering: [+++++++++++++++++++++                      ]  (146.5s|160.4s)  Rendering: [+++++++++++++++++++++                      ]  (147.5s|161.3s)  Rendering: [+++++++++++++++++++++                      ]  (148.5s|162.3s)  Rendering: [+++++++++++++++++++++                      ]  (149.5s|163.2s)  Rendering: [+++++++++++++++++++++                      ]  (150.5s|164.2s)  Rendering: [+++++++++++++++++++++                      ]  (151.5s|165.1s)  Rendering: [+++++++++++++++++++++                      ]  (152.5s|166.0s)  Rendering: [+++++++++++++++++++++                      ]  (153.5s|166.9s)  Rendering: [+++++++++++++++++++++                      ]  (154.5s|167.9s)  Rendering: [+++++++++++++++++++++                      ]  (155.5s|168.8s)  Rendering: [+++++++++++++++++++++                      ]  (156.5s|169.7s)  Rendering: [+++++++++++++++++++++                      ]  (157.5s|170.7s)  Rendering: [+++++++++++++++++++++                      ]  (158.5s|171.6s)  Rendering: [+++++++++++++++++++++                      ]  (159.5s|172.5s)  Rendering: [+++++++++++++++++++++                      ]  (160.5s|173.4s)  Rendering: [+++++++++++++++++++++                      ]  (161.5s|174.3s)  Rendering: [+++++++++++++++++++++                      ]  (162.5s|172.6s)  Rendering: [+++++++++++++++++++++                      ]  (163.5s|170.9s)  Rendering: [+++++++++++++++++++++                      ]  (164.5s|169.7s)  Rendering: [+++++++++++++++++++++                      ]  (165.5s|170.5s)  Rendering: [+++++++++++++++++++++                      ]  (166.5s|171.4s)  Rendering: [+++++++++++++++++++++                      ]  (167.5s|172.3s)  Rendering: [+++++++++++++++++++++                      ]  (168.5s|173.1s)  Rendering: [+++++++++++++++++++++                      ]  (169.5s|174.0s)  Rendering: [+++++++++++++++++++++                      ]  (170.5s|174.9s)  Rendering: [+++++++++++++++++++++                      ]  (171.5s|175.7s)  Rendering: [+++++++++++++++++++++                      ]  (172.5s|176.6s)  Rendering: [+++++++++++++++++++++                      ]  (173.5s|177.4s)  Rendering: [+++++++++++++++++++++                      ]  (174.5s|178.5s)  Rendering: [+++++++++++++++++++++                      ]  (175.5s|179.3s)  Rendering: [+++++++++++++++++++++                      ]  (176.5s|180.2s)  Rendering: [+++++++++++++++++++++                      ]  (177.5s|181.0s)  Rendering: [+++++++++++++++++++++                      ]  (178.5s|181.9s)  Rendering: [+++++++++++++++++++++                      ]  (179.5s|182.7s)  Rendering: [+++++++++++++++++++++                      ]  (180.5s|183.5s)  Rendering: [+++++++++++++++++++++                      ]  (181.5s|184.4s)  Rendering: [+++++++++++++++++++++                      ]  (182.5s|185.2s)  Rendering: [+++++++++++++++++++++                      ]  (183.5s|185.5s)  Rendering: [++++++++++++++++++++++                     ]  (184.5s|182.7s)  Rendering: [++++++++++++++++++++++                     ]  (185.5s|181.4s)  Rendering: [++++++++++++++++++++++                     ]  (186.5s|180.9s)  Rendering: [++++++++++++++++++++++                     ]  (187.5s|181.7s)  Rendering: [++++++++++++++++++++++                     ]  (188.5s|182.5s)  Rendering: [++++++++++++++++++++++                     ]  (189.5s|183.3s)  Rendering: [++++++++++++++++++++++                     ]  (190.5s|184.1s)  Rendering: [++++++++++++++++++++++                     ]  (191.5s|184.8s)  Rendering: [++++++++++++++++++++++                     ]  (192.5s|185.6s)  Rendering: [++++++++++++++++++++++                     ]  (193.5s|186.4s)  Rendering: [++++++++++++++++++++++                     ]  (194.5s|187.2s)  Rendering: [++++++++++++++++++++++                     ]  (195.5s|188.0s)  Rendering: [++++++++++++++++++++++                     ]  (196.5s|188.8s)  Rendering: [++++++++++++++++++++++                     ]  (197.5s|189.6s)  Rendering: [++++++++++++++++++++++                     ]  (198.5s|190.3s)  Rendering: [++++++++++++++++++++++                     ]  (199.5s|191.1s)  Rendering: [++++++++++++++++++++++                     ]  (200.5s|191.9s)  Rendering: [++++++++++++++++++++++                     ]  (201.5s|192.7s)  Rendering: [++++++++++++++++++++++                     ]  (202.5s|193.4s)  Rendering: [++++++++++++++++++++++                     ]  (203.5s|194.4s)  Rendering: [++++++++++++++++++++++                     ]  (204.5s|195.2s)  Rendering: [++++++++++++++++++++++                     ]  (205.5s|195.9s)  Rendering: [++++++++++++++++++++++                     ]  (206.5s|195.2s)  Rendering: [++++++++++++++++++++++                     ]  (207.5s|192.8s)  Rendering: [++++++++++++++++++++++                     ]  (208.5s|192.1s)  Rendering: [++++++++++++++++++++++                     ]  (209.5s|191.0s)  Rendering: [+++++++++++++++++++++++                    ]  (210.5s|191.8s)  Rendering: [+++++++++++++++++++++++                    ]  (211.5s|192.5s)  Rendering: [+++++++++++++++++++++++                    ]  (212.5s|193.2s)  Rendering: [+++++++++++++++++++++++                    ]  (213.5s|194.0s)  Rendering: [+++++++++++++++++++++++                    ]  (214.5s|194.7s)  Rendering: [+++++++++++++++++++++++                    ]  (215.5s|195.2s)  Rendering: [+++++++++++++++++++++++                    ]  (216.5s|195.9s)  Rendering: [+++++++++++++++++++++++                    ]  (217.5s|196.7s)  Rendering: [+++++++++++++++++++++++                    ]  (218.5s|197.4s)  Rendering: [+++++++++++++++++++++++                    ]  (219.5s|198.1s)  Rendering: [+++++++++++++++++++++++                    ]  (220.5s|198.8s)  Rendering: [+++++++++++++++++++++++                    ]  (221.5s|199.5s)  Rendering: [+++++++++++++++++++++++                    ]  (222.5s|200.4s)  Rendering: [+++++++++++++++++++++++                    ]  (223.5s|201.1s)  Rendering: [+++++++++++++++++++++++                    ]  (224.5s|201.8s)  Rendering: [+++++++++++++++++++++++                    ]  (225.5s|202.5s)  Rendering: [+++++++++++++++++++++++                    ]  (226.5s|203.2s)  Rendering: [+++++++++++++++++++++++                    ]  (227.5s|203.9s)  Rendering: [+++++++++++++++++++++++                    ]  (228.5s|204.6s)  Rendering: [+++++++++++++++++++++++                    ]  (229.5s|205.5s)  Rendering: [+++++++++++++++++++++++                    ]  (230.5s|206.0s)  Rendering: [+++++++++++++++++++++++                    ]  (231.5s|202.7s)  Rendering: [+++++++++++++++++++++++                    ]  (232.5s|203.1s)  Rendering: [+++++++++++++++++++++++                    ]  (233.5s|202.5s)  Rendering: [+++++++++++++++++++++++                    ]  (234.5s|201.0s)  Rendering: [+++++++++++++++++++++++                    ]  (235.5s|201.7s)  Rendering: [+++++++++++++++++++++++                    ]  (236.5s|202.4s)  Rendering: [+++++++++++++++++++++++                    ]  (237.5s|203.0s)  Rendering: [+++++++++++++++++++++++                    ]  (238.5s|203.7s)  Rendering: [+++++++++++++++++++++++                    ]  (239.5s|204.3s)  Rendering: [+++++++++++++++++++++++                    ]  (240.5s|205.0s)  Rendering: [+++++++++++++++++++++++                    ]  (241.5s|205.7s)  Rendering: [+++++++++++++++++++++++                    ]  (242.5s|206.3s)  Rendering: [+++++++++++++++++++++++                    ]  (243.5s|207.0s)  Rendering: [+++++++++++++++++++++++                    ]  (244.5s|207.6s)  Rendering: [+++++++++++++++++++++++                    ]  (245.5s|208.3s)  Rendering: [+++++++++++++++++++++++                    ]  (246.5s|208.9s)  Rendering: [+++++++++++++++++++++++                    ]  (247.5s|209.6s)  Rendering: [+++++++++++++++++++++++                    ]  (248.5s|210.2s)  Rendering: [+++++++++++++++++++++++                    ]  (249.5s|211.1s)  Rendering: [+++++++++++++++++++++++                    ]  (250.5s|211.7s)  Rendering: [+++++++++++++++++++++++                    ]  (251.5s|212.3s)  Rendering: [+++++++++++++++++++++++                    ]  (252.5s|213.0s)  Rendering: [+++++++++++++++++++++++                    ]  (253.5s|213.6s)  Rendering: [+++++++++++++++++++++++                    ]  (254.5s|214.3s)  Rendering: [+++++++++++++++++++++++                    ]  (255.5s|214.9s)  Rendering: [+++++++++++++++++++++++                    ]  (256.5s|215.5s)  Rendering: [+++++++++++++++++++++++                    ]  (257.5s|216.4s)  Rendering: [+++++++++++++++++++++++                    ]  (258.5s|216.8s)  Rendering: [++++++++++++++++++++++++                   ]  (259.5s|213.9s)  Rendering: [++++++++++++++++++++++++                   ]  (260.5s|214.3s)  Rendering: [++++++++++++++++++++++++                   ]  (261.5s|214.8s)  Rendering: [++++++++++++++++++++++++                   ]  (262.5s|214.3s)  Rendering: [++++++++++++++++++++++++                   ]  (263.5s|212.3s)  Rendering: [++++++++++++++++++++++++                   ]  (264.5s|212.9s)  Rendering: [++++++++++++++++++++++++                   ]  (265.5s|213.5s)  Rendering: [++++++++++++++++++++++++                   ]  (266.5s|214.1s)  Rendering: [++++++++++++++++++++++++                   ]  (267.5s|214.7s)  Rendering: [++++++++++++++++++++++++                   ]  (268.5s|215.5s)  Rendering: [++++++++++++++++++++++++                   ]  (269.5s|216.1s)  Rendering: [++++++++++++++++++++++++                   ]  (270.5s|216.7s)  Rendering: [++++++++++++++++++++++++                   ]  (271.5s|217.3s)  Rendering: [++++++++++++++++++++++++                   ]  (272.5s|217.9s)  Rendering: [++++++++++++++++++++++++                   ]  (273.5s|218.5s)  Rendering: [++++++++++++++++++++++++                   ]  (274.5s|219.0s)  Rendering: [++++++++++++++++++++++++                   ]  (275.5s|219.6s)  Rendering: [++++++++++++++++++++++++                   ]  (276.5s|220.2s)  Rendering: [++++++++++++++++++++++++                   ]  (277.5s|220.8s)  Rendering: [++++++++++++++++++++++++                   ]  (278.5s|221.4s)  Rendering: [++++++++++++++++++++++++                   ]  (279.5s|222.0s)  Rendering: [++++++++++++++++++++++++                   ]  (280.5s|222.5s)  Rendering: [++++++++++++++++++++++++                   ]  (281.5s|223.1s)  Rendering: [++++++++++++++++++++++++                   ]  (282.5s|223.9s)  Rendering: [++++++++++++++++++++++++                   ]  (283.5s|224.5s)  Rendering: [++++++++++++++++++++++++                   ]  (284.5s|225.1s)  Rendering: [++++++++++++++++++++++++                   ]  (285.5s|225.6s)  Rendering: [++++++++++++++++++++++++                   ]  (286.5s|226.2s)  Rendering: [++++++++++++++++++++++++                   ]  (287.5s|226.8s)  Rendering: [++++++++++++++++++++++++                   ]  (288.5s|227.4s)  Rendering: [++++++++++++++++++++++++                   ]  (289.5s|227.9s)  Rendering: [++++++++++++++++++++++++                   ]  (290.5s|225.9s)  Rendering: [++++++++++++++++++++++++                   ]  (291.5s|226.0s)  Rendering: [++++++++++++++++++++++++                   ]  (292.5s|226.6s)  Rendering: [++++++++++++++++++++++++                   ]  (293.5s|226.9s)  Rendering: [++++++++++++++++++++++++                   ]  (294.5s|227.5s)  Rendering: [++++++++++++++++++++++++                   ]  (295.5s|227.3s)  Rendering: [++++++++++++++++++++++++                   ]  (296.5s|226.1s)  Rendering: [++++++++++++++++++++++++                   ]  (297.5s|225.2s)  Rendering: [++++++++++++++++++++++++                   ]  (298.5s|225.7s)  Rendering: [++++++++++++++++++++++++                   ]  (299.5s|226.2s)  Rendering: [+++++++++++++++++++++++++                  ]  (300.5s|226.8s)  Rendering: [+++++++++++++++++++++++++                  ]  (301.5s|227.3s)  Rendering: [+++++++++++++++++++++++++                  ]  (302.5s|227.8s)  Rendering: [+++++++++++++++++++++++++                  ]  (303.5s|228.4s)  Rendering: [+++++++++++++++++++++++++                  ]  (304.5s|228.9s)  Rendering: [+++++++++++++++++++++++++                  ]  (305.5s|229.4s)  Rendering: [+++++++++++++++++++++++++                  ]  (306.5s|230.0s)  Rendering: [+++++++++++++++++++++++++                  ]  (307.5s|230.5s)  Rendering: [+++++++++++++++++++++++++                  ]  (308.5s|231.0s)  Rendering: [+++++++++++++++++++++++++                  ]  (309.5s|231.5s)  Rendering: [+++++++++++++++++++++++++                  ]  (310.5s|232.1s)  Rendering: [+++++++++++++++++++++++++                  ]  (311.5s|232.6s)  Rendering: [+++++++++++++++++++++++++                  ]  (312.5s|233.1s)  Rendering: [+++++++++++++++++++++++++                  ]  (313.5s|233.6s)  Rendering: [+++++++++++++++++++++++++                  ]  (314.5s|234.4s)  Rendering: [+++++++++++++++++++++++++                  ]  (315.5s|234.9s)  Rendering: [+++++++++++++++++++++++++                  ]  (316.5s|235.4s)  Rendering: [+++++++++++++++++++++++++                  ]  (317.5s|235.9s)  Rendering: [+++++++++++++++++++++++++                  ]  (318.5s|236.4s)  Rendering: [+++++++++++++++++++++++++                  ]  (319.5s|237.0s)  Rendering: [+++++++++++++++++++++++++                  ]  (320.5s|237.5s)  Rendering: [+++++++++++++++++++++++++                  ]  (321.5s|238.2s)  Rendering: [+++++++++++++++++++++++++                  ]  (322.5s|238.7s)  Rendering: [+++++++++++++++++++++++++                  ]  (323.5s|239.2s)  Rendering: [+++++++++++++++++++++++++                  ]  (324.5s|239.7s)  Rendering: [+++++++++++++++++++++++++                  ]  (325.5s|240.2s)  Rendering: [+++++++++++++++++++++++++                  ]  (326.5s|240.5s)  Rendering: [+++++++++++++++++++++++++                  ]  (327.5s|239.4s)  Rendering: [+++++++++++++++++++++++++                  ]  (328.5s|239.6s)  Rendering: [+++++++++++++++++++++++++                  ]  (329.5s|240.1s)  Rendering: [+++++++++++++++++++++++++                  ]  (330.5s|240.6s)  Rendering: [+++++++++++++++++++++++++                  ]  (331.5s|241.1s)  Rendering: [+++++++++++++++++++++++++                  ]  (332.5s|241.6s)  Rendering: [+++++++++++++++++++++++++                  ]  (333.5s|242.1s)  Rendering: [+++++++++++++++++++++++++                  ]  (334.5s|242.6s)  Rendering: [+++++++++++++++++++++++++                  ]  (335.5s|242.4s)  Rendering: [+++++++++++++++++++++++++                  ]  (336.5s|239.8s)  Rendering: [+++++++++++++++++++++++++                  ]  (337.5s|239.6s)  Rendering: [+++++++++++++++++++++++++                  ]  (338.5s|240.1s)  Rendering: [+++++++++++++++++++++++++                  ]  (339.5s|240.5s)  Rendering: [+++++++++++++++++++++++++                  ]  (340.5s|241.0s)  Rendering: [+++++++++++++++++++++++++                  ]  (341.5s|241.5s)  Rendering: [+++++++++++++++++++++++++                  ]  (342.5s|242.0s)  Rendering: [+++++++++++++++++++++++++                  ]  (343.5s|242.4s)  Rendering: [+++++++++++++++++++++++++                  ]  (344.5s|242.9s)  Rendering: [+++++++++++++++++++++++++                  ]  (345.5s|243.4s)  Rendering: [+++++++++++++++++++++++++                  ]  (346.5s|243.8s)  Rendering: [+++++++++++++++++++++++++                  ]  (347.5s|244.3s)  Rendering: [+++++++++++++++++++++++++                  ]  (348.5s|244.8s)  Rendering: [+++++++++++++++++++++++++                  ]  (349.5s|245.2s)  Rendering: [+++++++++++++++++++++++++                  ]  (350.5s|245.7s)  Rendering: [+++++++++++++++++++++++++                  ]  (351.5s|246.2s)  Rendering: [+++++++++++++++++++++++++                  ]  (352.5s|246.6s)  Rendering: [+++++++++++++++++++++++++                  ]  (353.5s|247.3s)  Rendering: [+++++++++++++++++++++++++                  ]  (354.5s|247.8s)  Rendering: [+++++++++++++++++++++++++                  ]  (355.5s|248.2s)  Rendering: [+++++++++++++++++++++++++                  ]  (356.5s|248.7s)  Rendering: [+++++++++++++++++++++++++                  ]  (357.5s|249.1s)  Rendering: [+++++++++++++++++++++++++                  ]  (358.5s|249.6s)  Rendering: [+++++++++++++++++++++++++                  ]  (359.5s|250.0s)  Rendering: [+++++++++++++++++++++++++                  ]  (360.5s|250.5s)  Rendering: [+++++++++++++++++++++++++                  ]  (361.5s|251.2s)  Rendering: [+++++++++++++++++++++++++                  ]  (362.5s|251.6s)  Rendering: [+++++++++++++++++++++++++                  ]  (363.5s|252.1s)  Rendering: [+++++++++++++++++++++++++                  ]  (364.5s|252.5s)  Rendering: [+++++++++++++++++++++++++                  ]  (365.5s|253.0s)  Rendering: [+++++++++++++++++++++++++                  ]  (366.5s|253.4s)  Rendering: [+++++++++++++++++++++++++                  ]  (367.5s|253.9s)  Rendering: [+++++++++++++++++++++++++                  ]  (368.5s|254.3s)  Rendering: [+++++++++++++++++++++++++                  ]  (369.5s|254.7s)  Rendering: [+++++++++++++++++++++++++                  ]  (370.5s|255.2s)  Rendering: [+++++++++++++++++++++++++                  ]  (371.5s|255.6s)  Rendering: [+++++++++++++++++++++++++                  ]  (372.5s|256.1s)  Rendering: [+++++++++++++++++++++++++                  ]  (373.5s|256.5s)  Rendering: [+++++++++++++++++++++++++                  ]  (374.5s|257.2s)  Rendering: [++++++++++++++++++++++++++                 ]  (375.5s|257.6s)  Rendering: [++++++++++++++++++++++++++                 ]  (376.5s|258.0s)  Rendering: [++++++++++++++++++++++++++                 ]  (377.5s|258.5s)  Rendering: [++++++++++++++++++++++++++                 ]  (378.5s|258.9s)  Rendering: [++++++++++++++++++++++++++                 ]  (379.5s|259.3s)  Rendering: [++++++++++++++++++++++++++                 ]  (380.5s|259.8s)  Rendering: [++++++++++++++++++++++++++                 ]  (381.5s|260.2s)  Rendering: [++++++++++++++++++++++++++                 ]  (382.5s|260.6s)  Rendering: [++++++++++++++++++++++++++                 ]  (383.5s|260.8s)  Rendering: [++++++++++++++++++++++++++                 ]  (384.5s|260.4s)  Rendering: [++++++++++++++++++++++++++                 ]  (385.5s|257.0s)  Rendering: [++++++++++++++++++++++++++                 ]  (386.5s|257.4s)  Rendering: [++++++++++++++++++++++++++                 ]  (387.5s|257.9s)  Rendering: [++++++++++++++++++++++++++                 ]  (388.5s|258.3s)  Rendering: [++++++++++++++++++++++++++                 ]  (389.5s|258.7s)  Rendering: [++++++++++++++++++++++++++                 ]  (390.5s|259.1s)  Rendering: [++++++++++++++++++++++++++                 ]  (391.5s|259.5s)  Rendering: [++++++++++++++++++++++++++                 ]  (392.5s|259.9s)  Rendering: [++++++++++++++++++++++++++                 ]  (393.5s|260.3s)  Rendering: [++++++++++++++++++++++++++                 ]  (394.5s|261.0s)  Rendering: [++++++++++++++++++++++++++                 ]  (395.5s|261.4s)  Rendering: [++++++++++++++++++++++++++                 ]  (396.5s|261.8s)  Rendering: [++++++++++++++++++++++++++                 ]  (397.5s|262.2s)  Rendering: [++++++++++++++++++++++++++                 ]  (398.5s|262.6s)  Rendering: [++++++++++++++++++++++++++                 ]  (399.5s|263.0s)  Rendering: [++++++++++++++++++++++++++                 ]  (400.5s|263.4s)  Rendering: [++++++++++++++++++++++++++                 ]  (401.5s|264.0s)  Rendering: [++++++++++++++++++++++++++                 ]  (402.5s|264.4s)  Rendering: [++++++++++++++++++++++++++                 ]  (403.5s|264.8s)  Rendering: [++++++++++++++++++++++++++                 ]  (404.6s|265.2s)  Rendering: [++++++++++++++++++++++++++                 ]  (405.6s|265.6s)  Rendering: [++++++++++++++++++++++++++                 ]  (406.6s|266.3s)  Rendering: [++++++++++++++++++++++++++                 ]  (407.6s|266.6s)  Rendering: [++++++++++++++++++++++++++                 ]  (408.6s|267.0s)  Rendering: [++++++++++++++++++++++++++                 ]  (409.6s|267.4s)  Rendering: [++++++++++++++++++++++++++                 ]  (410.6s|268.1s)  Rendering: [++++++++++++++++++++++++++                 ]  (411.6s|268.5s)  Rendering: [++++++++++++++++++++++++++                 ]  (412.6s|268.9s)  Rendering: [++++++++++++++++++++++++++                 ]  (413.6s|269.2s)  Rendering: [++++++++++++++++++++++++++                 ]  (414.6s|269.6s)  Rendering: [++++++++++++++++++++++++++                 ]  (415.6s|270.0s)  Rendering: [++++++++++++++++++++++++++                 ]  (416.6s|270.7s)  Rendering: [++++++++++++++++++++++++++                 ]  (417.6s|271.0s)  Rendering: [++++++++++++++++++++++++++                 ]  (418.6s|271.4s)  Rendering: [++++++++++++++++++++++++++                 ]  (419.6s|271.8s)  Rendering: [++++++++++++++++++++++++++                 ]  (420.6s|272.4s)  Rendering: [++++++++++++++++++++++++++                 ]  (421.6s|272.8s)  Rendering: [++++++++++++++++++++++++++                 ]  (422.6s|273.2s)  Rendering: [++++++++++++++++++++++++++                 ]  (423.6s|273.6s)  Rendering: [++++++++++++++++++++++++++                 ]  (424.6s|273.9s)  Rendering: [++++++++++++++++++++++++++                 ]  (425.6s|274.3s)  Rendering: [++++++++++++++++++++++++++                 ]  (426.6s|275.0s)  Rendering: [++++++++++++++++++++++++++                 ]  (427.6s|275.3s)  Rendering: [++++++++++++++++++++++++++                 ]  (428.6s|275.7s)  Rendering: [++++++++++++++++++++++++++                 ]  (429.6s|276.1s)  Rendering: [++++++++++++++++++++++++++                 ]  (430.6s|276.4s)  Rendering: [++++++++++++++++++++++++++                 ]  (431.6s|277.1s)  Rendering: [++++++++++++++++++++++++++                 ]  (432.6s|277.4s)  Rendering: [++++++++++++++++++++++++++                 ]  (433.6s|277.8s)  Rendering: [++++++++++++++++++++++++++                 ]  (434.6s|278.2s)  Rendering: [++++++++++++++++++++++++++                 ]  (435.6s|278.5s)  Rendering: [++++++++++++++++++++++++++                 ]  (436.6s|278.9s)  Rendering: [++++++++++++++++++++++++++                 ]  (437.6s|279.0s)  Rendering: [++++++++++++++++++++++++++                 ]  (438.6s|279.1s)  Rendering: [++++++++++++++++++++++++++                 ]  (439.6s|278.9s)  Rendering: [++++++++++++++++++++++++++                 ]  (440.6s|276.2s)  Rendering: [++++++++++++++++++++++++++                 ]  (441.6s|276.0s)  Rendering: [++++++++++++++++++++++++++                 ]  (442.6s|276.3s)  Rendering: [++++++++++++++++++++++++++                 ]  (443.6s|276.7s)  Rendering: [++++++++++++++++++++++++++                 ]  (444.6s|277.0s)  Rendering: [+++++++++++++++++++++++++++                ]  (445.6s|277.4s)  Rendering: [+++++++++++++++++++++++++++                ]  (446.6s|277.7s)  Rendering: [+++++++++++++++++++++++++++                ]  (447.6s|278.0s)  Rendering: [+++++++++++++++++++++++++++                ]  (448.6s|278.7s)  Rendering: [+++++++++++++++++++++++++++                ]  (449.6s|279.0s)  Rendering: [+++++++++++++++++++++++++++                ]  (450.6s|279.4s)  Rendering: [+++++++++++++++++++++++++++                ]  (451.6s|279.7s)  Rendering: [+++++++++++++++++++++++++++                ]  (452.6s|280.3s)  Rendering: [+++++++++++++++++++++++++++                ]  (453.6s|280.6s)  Rendering: [+++++++++++++++++++++++++++                ]  (454.6s|281.0s)  Rendering: [+++++++++++++++++++++++++++                ]  (455.6s|281.3s)  Rendering: [+++++++++++++++++++++++++++                ]  (456.6s|281.7s)  Rendering: [+++++++++++++++++++++++++++                ]  (457.6s|282.3s)  Rendering: [+++++++++++++++++++++++++++                ]  (458.6s|282.6s)  Rendering: [+++++++++++++++++++++++++++                ]  (459.6s|282.9s)  Rendering: [+++++++++++++++++++++++++++                ]  (460.6s|283.3s)  Rendering: [+++++++++++++++++++++++++++                ]  (461.6s|283.6s)  Rendering: [+++++++++++++++++++++++++++                ]  (462.6s|284.2s)  Rendering: [+++++++++++++++++++++++++++                ]  (463.6s|284.5s)  Rendering: [+++++++++++++++++++++++++++                ]  (464.6s|284.9s)  Rendering: [+++++++++++++++++++++++++++                ]  (465.6s|285.2s)  Rendering: [+++++++++++++++++++++++++++                ]  (466.6s|285.5s)  Rendering: [+++++++++++++++++++++++++++                ]  (467.6s|286.1s)  Rendering: [+++++++++++++++++++++++++++                ]  (468.6s|286.5s)  Rendering: [+++++++++++++++++++++++++++                ]  (469.6s|286.8s)  Rendering: [+++++++++++++++++++++++++++                ]  (470.6s|287.1s)  Rendering: [+++++++++++++++++++++++++++                ]  (471.6s|287.4s)  Rendering: [+++++++++++++++++++++++++++                ]  (472.6s|287.7s)  Rendering: [+++++++++++++++++++++++++++                ]  (473.6s|288.1s)  Rendering: [+++++++++++++++++++++++++++                ]  (474.6s|288.4s)  Rendering: [+++++++++++++++++++++++++++                ]  (475.6s|289.0s)  Rendering: [+++++++++++++++++++++++++++                ]  (476.6s|289.3s)  Rendering: [+++++++++++++++++++++++++++                ]  (477.6s|289.6s)  Rendering: [+++++++++++++++++++++++++++                ]  (478.6s|289.9s)  Rendering: [+++++++++++++++++++++++++++                ]  (479.6s|290.2s)  Rendering: [+++++++++++++++++++++++++++                ]  (480.6s|290.6s)  Rendering: [+++++++++++++++++++++++++++                ]  (481.6s|291.2s)  Rendering: [+++++++++++++++++++++++++++                ]  (482.6s|291.5s)  Rendering: [+++++++++++++++++++++++++++                ]  (487.6s|293.3s)  Rendering: [+++++++++++++++++++++++++++                ]  (492.6s|294.8s)  Rendering: [+++++++++++++++++++++++++++                ]  (497.6s|291.3s)  Rendering: [+++++++++++++++++++++++++++                ]  (502.6s|293.0s)  Rendering: [+++++++++++++++++++++++++++                ]  (507.6s|294.7s)  Rendering: [+++++++++++++++++++++++++++                ]  (512.6s|296.4s)  Rendering: [+++++++++++++++++++++++++++                ]  (517.6s|298.1s)  Rendering: [+++++++++++++++++++++++++++                ]  (522.6s|299.7s)  Rendering: [+++++++++++++++++++++++++++                ]  (527.6s|301.4s)  Rendering: [+++++++++++++++++++++++++++                ]  (532.6s|302.7s)  Rendering: [+++++++++++++++++++++++++++                ]  (537.6s|303.9s)  Rendering: [++++++++++++++++++++++++++++               ]  (542.6s|305.5s)  Rendering: [++++++++++++++++++++++++++++               ]  (547.6s|306.7s)  Rendering: [++++++++++++++++++++++++++++               ]  (552.6s|302.6s)  Rendering: [++++++++++++++++++++++++++++               ]  (557.6s|304.1s)  Rendering: [++++++++++++++++++++++++++++               ]  (562.6s|305.5s)  Rendering: [++++++++++++++++++++++++++++               ]  (567.6s|307.0s)  Rendering: [++++++++++++++++++++++++++++               ]  (572.6s|308.4s)  Rendering: [++++++++++++++++++++++++++++               ]  (577.6s|309.8s)  Rendering: [++++++++++++++++++++++++++++               ]  (582.6s|311.2s)  Rendering: [++++++++++++++++++++++++++++               ]  (587.6s|312.5s)  Rendering: [++++++++++++++++++++++++++++               ]  (592.6s|313.5s)  Rendering: [++++++++++++++++++++++++++++               ]  (597.6s|314.9s)  Rendering: [++++++++++++++++++++++++++++               ]  (602.6s|315.8s)  Rendering: [++++++++++++++++++++++++++++               ]  (607.6s|316.1s)  Rendering: [++++++++++++++++++++++++++++               ]  (612.6s|312.7s)  Rendering: [+++++++++++++++++++++++++++++              ]  (617.6s|313.6s)  Rendering: [+++++++++++++++++++++++++++++              ]  (622.6s|314.5s)  Rendering: [+++++++++++++++++++++++++++++              ]  (627.6s|315.7s)  Rendering: [+++++++++++++++++++++++++++++              ]  (632.6s|316.8s)  Rendering: [+++++++++++++++++++++++++++++              ]  (637.6s|318.0s)  Rendering: [+++++++++++++++++++++++++++++              ]  (642.6s|318.8s)  Rendering: [+++++++++++++++++++++++++++++              ]  (647.6s|320.2s)  Rendering: [+++++++++++++++++++++++++++++              ]  (652.6s|321.3s)  Rendering: [+++++++++++++++++++++++++++++              ]  (657.6s|322.1s)  Rendering: [+++++++++++++++++++++++++++++              ]  (662.6s|322.4s)  Rendering: [+++++++++++++++++++++++++++++              ]  (667.6s|318.6s)  Rendering: [+++++++++++++++++++++++++++++              ]  (672.6s|319.6s)  Rendering: [+++++++++++++++++++++++++++++              ]  (677.6s|320.6s)  Rendering: [+++++++++++++++++++++++++++++              ]  (682.6s|321.6s)  Rendering: [+++++++++++++++++++++++++++++              ]  (687.6s|322.5s)  Rendering: [+++++++++++++++++++++++++++++              ]  (692.6s|323.4s)  Rendering: [+++++++++++++++++++++++++++++              ]  (697.6s|324.4s)  Rendering: [+++++++++++++++++++++++++++++              ]  (702.6s|325.3s)  Rendering: [+++++++++++++++++++++++++++++              ]  (707.6s|325.8s)  Rendering: [+++++++++++++++++++++++++++++              ]  (712.6s|326.6s)  Rendering: [++++++++++++++++++++++++++++++             ]  (717.6s|327.1s)  Rendering: [++++++++++++++++++++++++++++++             ]  (722.6s|326.9s)  Rendering: [++++++++++++++++++++++++++++++             ]  (727.6s|322.6s)  Rendering: [++++++++++++++++++++++++++++++             ]  (732.6s|323.1s)  Rendering: [++++++++++++++++++++++++++++++             ]  (737.6s|323.8s)  Rendering: [++++++++++++++++++++++++++++++             ]  (742.6s|324.6s)  Rendering: [++++++++++++++++++++++++++++++             ]  (747.6s|325.3s)  Rendering: [++++++++++++++++++++++++++++++             ]  (752.6s|326.0s)  Rendering: [++++++++++++++++++++++++++++++             ]  (757.6s|326.3s)  Rendering: [++++++++++++++++++++++++++++++             ]  (762.6s|327.0s)  Rendering: [++++++++++++++++++++++++++++++             ]  (767.6s|327.7s)  Rendering: [++++++++++++++++++++++++++++++             ]  (772.6s|327.9s)  Rendering: [++++++++++++++++++++++++++++++             ]  (777.6s|327.8s)  Rendering: [++++++++++++++++++++++++++++++             ]  (782.6s|322.1s)  Rendering: [+++++++++++++++++++++++++++++++            ]  (787.6s|322.7s)  Rendering: [+++++++++++++++++++++++++++++++            ]  (792.6s|323.3s)  Rendering: [+++++++++++++++++++++++++++++++            ]  (797.6s|323.8s)  Rendering: [+++++++++++++++++++++++++++++++            ]  (802.6s|324.0s)  Rendering: [+++++++++++++++++++++++++++++++            ]  (807.6s|324.5s)  Rendering: [+++++++++++++++++++++++++++++++            ]  (812.6s|325.0s)  Rendering: [+++++++++++++++++++++++++++++++            ]  (817.6s|325.1s)  Rendering: [+++++++++++++++++++++++++++++++            ]  (822.6s|325.2s)  Rendering: [+++++++++++++++++++++++++++++++            ]  (827.6s|324.5s)  Rendering: [+++++++++++++++++++++++++++++++            ]  (832.6s|321.5s)  Rendering: [+++++++++++++++++++++++++++++++            ]  (837.6s|318.1s)  Rendering: [+++++++++++++++++++++++++++++++            ]  (842.6s|318.1s)  Rendering: [+++++++++++++++++++++++++++++++            ]  (847.6s|318.5s)  Rendering: [+++++++++++++++++++++++++++++++            ]  (852.6s|318.8s)  Rendering: [+++++++++++++++++++++++++++++++            ]  (857.6s|319.2s)  Rendering: [+++++++++++++++++++++++++++++++            ]  (862.6s|319.1s)  Rendering: [+++++++++++++++++++++++++++++++            ]  (867.6s|319.1s)  Rendering: [+++++++++++++++++++++++++++++++            ]  (872.6s|318.6s)  Rendering: [++++++++++++++++++++++++++++++++           ]  (877.6s|318.1s)  Rendering: [++++++++++++++++++++++++++++++++           ]  (882.6s|310.7s)  Rendering: [++++++++++++++++++++++++++++++++           ]  (887.6s|310.9s)  Rendering: [++++++++++++++++++++++++++++++++           ]  (892.6s|311.1s)  Rendering: [++++++++++++++++++++++++++++++++           ]  (897.6s|310.9s)  Rendering: [++++++++++++++++++++++++++++++++           ]  (902.6s|311.1s)  Rendering: [++++++++++++++++++++++++++++++++           ]  (907.6s|310.9s)  Rendering: [++++++++++++++++++++++++++++++++           ]  (912.6s|310.7s)  Rendering: [++++++++++++++++++++++++++++++++           ]  (917.6s|310.4s)  Rendering: [++++++++++++++++++++++++++++++++           ]  (922.6s|310.1s)  Rendering: [++++++++++++++++++++++++++++++++           ]  (927.6s|309.1s)  Rendering: [++++++++++++++++++++++++++++++++           ]  (932.6s|301.4s)  Rendering: [+++++++++++++++++++++++++++++++++          ]  (937.6s|301.1s)  Rendering: [+++++++++++++++++++++++++++++++++          ]  (942.6s|301.1s)  Rendering: [+++++++++++++++++++++++++++++++++          ]  (947.6s|300.8s)  Rendering: [+++++++++++++++++++++++++++++++++          ]  (952.6s|300.8s)  Rendering: [+++++++++++++++++++++++++++++++++          ]  (957.6s|300.4s)  Rendering: [+++++++++++++++++++++++++++++++++          ]  (962.6s|300.0s)  Rendering: [+++++++++++++++++++++++++++++++++          ]  (967.6s|299.6s)  Rendering: [+++++++++++++++++++++++++++++++++          ]  (972.6s|298.4s)  Rendering: [+++++++++++++++++++++++++++++++++          ]  (977.6s|289.4s)  Rendering: [+++++++++++++++++++++++++++++++++          ]  (982.6s|289.3s)  Rendering: [+++++++++++++++++++++++++++++++++          ]  (987.6s|289.2s)  Rendering: [+++++++++++++++++++++++++++++++++          ]  (992.6s|289.1s)  Rendering: [+++++++++++++++++++++++++++++++++          ]  (997.6s|288.6s)  Rendering: [+++++++++++++++++++++++++++++++++          ]  (1002.6s|288.1s)  Rendering: [+++++++++++++++++++++++++++++++++          ]  (1007.6s|287.5s)  Rendering: [++++++++++++++++++++++++++++++++++         ]  (1012.6s|286.6s)  Rendering: [++++++++++++++++++++++++++++++++++         ]  (1017.6s|284.4s)  Rendering: [++++++++++++++++++++++++++++++++++         ]  (1022.6s|275.6s)  Rendering: [++++++++++++++++++++++++++++++++++         ]  (1027.6s|275.0s)  Rendering: [++++++++++++++++++++++++++++++++++         ]  (1032.6s|274.4s)  Rendering: [++++++++++++++++++++++++++++++++++         ]  (1037.6s|273.7s)  Rendering: [++++++++++++++++++++++++++++++++++         ]  (1042.6s|273.1s)  Rendering: [++++++++++++++++++++++++++++++++++         ]  (1047.6s|272.0s)  Rendering: [++++++++++++++++++++++++++++++++++         ]  (1052.6s|271.0s)  Rendering: [++++++++++++++++++++++++++++++++++         ]  (1057.6s|268.7s)  Rendering: [+++++++++++++++++++++++++++++++++++        ]  (1062.6s|259.8s)  Rendering: [+++++++++++++++++++++++++++++++++++        ]  (1067.6s|259.0s)  Rendering: [+++++++++++++++++++++++++++++++++++        ]  (1072.6s|258.3s)  Rendering: [+++++++++++++++++++++++++++++++++++        ]  (1077.6s|257.5s)  Rendering: [+++++++++++++++++++++++++++++++++++        ]  (1082.6s|256.8s)  Rendering: [+++++++++++++++++++++++++++++++++++        ]  (1087.6s|255.2s)  Rendering: [+++++++++++++++++++++++++++++++++++        ]  (1092.6s|253.6s)  Rendering: [+++++++++++++++++++++++++++++++++++        ]  (1097.6s|242.7s)  Rendering: [+++++++++++++++++++++++++++++++++++        ]  (1102.6s|241.8s)  Rendering: [+++++++++++++++++++++++++++++++++++        ]  (1107.6s|240.6s)  Rendering: [+++++++++++++++++++++++++++++++++++        ]  (1112.6s|239.7s)  Rendering: [+++++++++++++++++++++++++++++++++++        ]  (1117.6s|238.1s)  Rendering: [++++++++++++++++++++++++++++++++++++       ]  (1122.6s|236.4s)  Rendering: [++++++++++++++++++++++++++++++++++++       ]  (1127.6s|233.2s)  Rendering: [++++++++++++++++++++++++++++++++++++       ]  (1132.6s|223.0s)  Rendering: [++++++++++++++++++++++++++++++++++++       ]  (1137.6s|222.0s)  Rendering: [++++++++++++++++++++++++++++++++++++       ]  (1142.6s|220.7s)  Rendering: [++++++++++++++++++++++++++++++++++++       ]  (1147.6s|219.0s)  Rendering: [++++++++++++++++++++++++++++++++++++       ]  (1152.6s|217.6s)  Rendering: [++++++++++++++++++++++++++++++++++++       ]  (1157.6s|215.1s)  Rendering: [+++++++++++++++++++++++++++++++++++++      ]  (1162.6s|203.4s)  Rendering: [+++++++++++++++++++++++++++++++++++++      ]  (1167.6s|202.3s)  Rendering: [+++++++++++++++++++++++++++++++++++++      ]  (1172.6s|200.9s)  Rendering: [+++++++++++++++++++++++++++++++++++++      ]  (1177.6s|199.1s)  Rendering: [+++++++++++++++++++++++++++++++++++++      ]  (1182.6s|197.3s)  Rendering: [+++++++++++++++++++++++++++++++++++++      ]  (1187.6s|194.7s)  Rendering: [+++++++++++++++++++++++++++++++++++++      ]  (1192.6s|183.0s)  Rendering: [+++++++++++++++++++++++++++++++++++++      ]  (1197.6s|181.5s)  Rendering: [+++++++++++++++++++++++++++++++++++++      ]  (1202.6s|180.4s)  Rendering: [+++++++++++++++++++++++++++++++++++++      ]  (1207.6s|178.5s)  Rendering: [++++++++++++++++++++++++++++++++++++++     ]  (1212.6s|176.2s)  Rendering: [++++++++++++++++++++++++++++++++++++++     ]  (1217.6s|162.7s)  Rendering: [++++++++++++++++++++++++++++++++++++++     ]  (1222.6s|161.1s)  Rendering: [++++++++++++++++++++++++++++++++++++++     ]  (1227.6s|159.9s)  Rendering: [++++++++++++++++++++++++++++++++++++++     ]  (1232.6s|158.0s)  Rendering: [++++++++++++++++++++++++++++++++++++++     ]  (1237.6s|156.0s)  Rendering: [+++++++++++++++++++++++++++++++++++++++    ]  (1242.6s|141.9s)  Rendering: [+++++++++++++++++++++++++++++++++++++++    ]  (1247.6s|140.6s)  Rendering: [+++++++++++++++++++++++++++++++++++++++    ]  (1252.6s|139.0s)  Rendering: [+++++++++++++++++++++++++++++++++++++++    ]  (1257.6s|137.0s)  Rendering: [+++++++++++++++++++++++++++++++++++++++    ]  (1262.6s|135.0s)  Rendering: [+++++++++++++++++++++++++++++++++++++++    ]  (1267.6s|120.2s)  Rendering: [+++++++++++++++++++++++++++++++++++++++    ]  (1272.6s|118.9s)  Rendering: [+++++++++++++++++++++++++++++++++++++++    ]  (1277.6s|116.8s)  Rendering: [+++++++++++++++++++++++++++++++++++++++    ]  (1282.6s|114.8s)  Rendering: [++++++++++++++++++++++++++++++++++++++++   ]  (1287.6s|112.0s)  Rendering: [++++++++++++++++++++++++++++++++++++++++   ]  (1292.6s|97.4s)  Rendering: [++++++++++++++++++++++++++++++++++++++++   ]  (1297.6s|95.3s)  Rendering: [++++++++++++++++++++++++++++++++++++++++   ]  (1302.6s|93.5s)  Rendering: [++++++++++++++++++++++++++++++++++++++++   ]  (1307.6s|90.7s)  Rendering: [+++++++++++++++++++++++++++++++++++++++++  ]  (1312.6s|75.2s)  Rendering: [+++++++++++++++++++++++++++++++++++++++++  ]  (1317.6s|72.7s)  Rendering: [+++++++++++++++++++++++++++++++++++++++++  ]  (1322.6s|70.2s)  Rendering: [+++++++++++++++++++++++++++++++++++++++++  ]  (1327.6s|54.0s)  Rendering: [+++++++++++++++++++++++++++++++++++++++++  ]  (1332.6s|51.8s)  Rendering: [+++++++++++++++++++++++++++++++++++++++++  ]  (1337.6s|49.6s)  Rendering: [++++++++++++++++++++++++++++++++++++++++++ ]  (1342.6s|34.2s)  Rendering: [++++++++++++++++++++++++++++++++++++++++++ ]  (1347.6s|30.3s)  Rendering: [++++++++++++++++++++++++++++++++++++++++++ ]  (1352.6s|27.8s)  Rendering: [+++++++++++++++++++++++++++++++++++++++++++]  (1357.6s|10.0s)  Rendering: [+++++++++++++++++++++++++++++++++++++++++++]  (1362.6s)       
ray stats:  
0. General info about predictor:  
num_entries: 4096 
average number of leafs per entry: 1.42163 
max_leaf_count: 4 
byte_size: 98304 bytes 96kB 0.09375MB 9.15527e-05GB 
go_up_level 
number_of_entries_cap 5 
entry_threshold 4096 
use_replacement_policy 1 
 
1. lookup stage 
num_lookups: 67173859 
predictor_hit_count: 17745446 
 
2. verify stage 
verifications_made: 17745446 
num_verified_predictions: 13741252 
new_intersection_counter: 0 
new_intersection_counter_P: 1857146059 
new_intersection_counter_P_verify: 183982249 
new_intersection_counter_P_reference: 1673163810 
 
3. ground truth stage 
ground_truths_made: 67173859 
reference_intersection_counter: 297927757 
reference_intersection_counter_P: 2013707205 
 
4. training stage 
num_calls_to_train: 32560229 
num_new_entries: 17504797 
early_rejections_due_to_cap: 0 
num_evictions_cap: 10674 
num_updates: 15044758 
 
5. Savings 
intersection savings: 1 
intersection savings P: 0.0777477 
 
6. Eviction Policy
num_updates_LRU: 17745446 
num_evictions_LRU: 17490027 
use_replacement_policy1 
7. Hit Histogram

816675 137537 48185 22904 12695 7294 4525 2970 2036 1376 949 710 553 391 296 234 176 114 84 76 65 48 28 17 17 15 12 7 12 5 3 5 8 1 3 2 2 0 0 4 2 0 1 0 0 0 0 0 0 0 0 0 0 0 0 0 0 0 0 0 0 0 0 0 0 0 0 0 0 0 0 0 0 0 0 0 0 0 0 0 0 0 0 0 0 0 0 0 0 0 0 0 0 0 0 0 0 0 0 0 
Statistics:
  BVH
    Interior nodes                                                   1974
    Leaf nodes                                                       1975
    Primitives per leaf node                          2329 /         1975 (1.18x)
  Integrator
    Camera rays traced                                            8454272
  Intersections
    Regular ray intersection tests                               11822475
    Shadow ray intersection tests                                67173859
    Ray-triangle intersection tests               52559996 /    193778702 (27.12%)
  Memory
    BVH tree                                                       190.70 kB
    Film pixels                                                     32.00 MiB
    Primitives                                                     163.76 kB
    TransformCache                                                 260.00 kB
    Triangle meshes                                                601.69 kB
  Scene
    AreaLights                                                          1
    Lights                                                              2
    Materials created                                                   4
    Shapes created                                                   2329
    Probes per TransformCache lookup                                1.000 avg [range 1 - 1]
    TransformCache hits                               4584 /         4588 (99.91%)
    Triangles per triangle mesh                       2328 /         2292 (1.02x)
  Profile
    Integrator::Render()                                            99.97% (   0:22:42.60)
      Camera::GenerateRay[Differential]()                            0.05% (   0:00:00.74)
      Film::AddSample()                                              0.08% (   0:00:01.15)
      Film::MergeTile()                                              0.00% (   0:00:00.01)
      Sampler::GetSample[12]D()                                      0.09% (   0:00:01.24)
      Sampler::StartPixelSample()                                    4.00% (   0:00:54.47)
      SamplerIntegrator::Li()                                       95.67% (   0:21:43.95)
        Accelerator::Intersect()                                     0.29% (   0:00:03.91)
          Other Shape::Intersect()                                   0.01% (   0:00:00.11)
          Triangle::Intersect()                                      0.06% (   0:00:00.81)
        BSDF::Sample_f()                                             0.00% (   0:00:00.06)
        Direct lighting                                             95.22% (   0:21:37.74)
          Accelerator::Intersect()                                   3.91% (   0:00:53.23)
            Other Shape::Intersect()                                 0.03% (   0:00:00.47)
            Other Shape::IntersectP()                                0.05% (   0:00:00.74)
            Triangle::Intersect()                                    0.03% (   0:00:00.43)
            Triangle::IntersectP()                                   0.46% (   0:00:06.30)
          BSDF::PDF()                                                0.43% (   0:00:05.89)
          BSDF::Sample_f()                                           2.36% (   0:00:32.21)
          BSDF::f()                                                  0.81% (   0:00:11.03)
          Light::Pdf()                                               0.49% (   0:00:06.62)
            Other Shape::Intersect()                                 0.28% (   0:00:03.79)
          Light::Sample_*()                                          0.70% (   0:00:09.52)
        Material::ComputeScatteringFunctions()                       0.05% (   0:00:00.64)
        Sampler::GetSample[12]D()                                    0.05% (   0:00:00.65)
    Scene parsing and creation                                       0.03% (   0:00:00.35)
  Profile (flattened)
    Direct lighting                                                 86.52% (   0:19:39.21)
    Sampler::StartPixelSample()                                      4.00% (   0:00:54.47)
    Accelerator::Intersect()                                         3.54% (   0:00:48.27)
    BSDF::Sample_f()                                                 2.37% (   0:00:32.27)
    BSDF::f()                                                        0.81% (   0:00:11.03)
    Light::Sample_*()                                                0.70% (   0:00:09.52)
    Triangle::IntersectP()                                           0.46% (   0:00:06.30)
    BSDF::PDF()                                                      0.43% (   0:00:05.89)
    Other Shape::Intersect()                                         0.32% (   0:00:04.37)
    Light::Pdf()                                                     0.21% (   0:00:02.82)
    Sampler::GetSample[12]D()                                        0.14% (   0:00:01.89)
    Triangle::Intersect()                                            0.09% (   0:00:01.24)
    Film::AddSample()                                                0.08% (   0:00:01.15)
    Integrator::Render()                                             0.08% (   0:00:01.03)
    SamplerIntegrator::Li()                                          0.07% (   0:00:00.94)
    Other Shape::IntersectP()                                        0.05% (   0:00:00.74)
    Camera::GenerateRay[Differential]()                              0.05% (   0:00:00.74)
    Material::ComputeScatteringFunctions()                           0.05% (   0:00:00.64)
    Scene parsing and creation                                       0.03% (   0:00:00.35)
    Film::MergeTile()                                                0.00% (   0:00:00.01)

